{
  "main.css": "static/css/main.2e29ac0c.css",
  "main.css.map": "static/css/main.2e29ac0c.css.map",
  "main.js": "static/js/main.585ccd1d.js",
  "main.js.map": "static/js/main.585ccd1d.js.map",
  "static\\media\\logo.svg": "static/media/logo.5d5d9eef.svg"
}